Merge clusters that remain unimodal when combined — cluster_merge_unimodal • UtilsGGSV
…
    Examples

set.seed(42)
n <- 40
mat <- matrix(
  c(rnorm(n, 0, 1), rnorm(n, 0.3, 1)),
  ncol = 2,
  dimnames = list(NULL, c("v1", "v2"))
)
cl <- rep(c("A", "B", "C", "D"), each = n / 4)
bin_res <- cluster_merge_bin(mat, cl, list(v1 = 0, v2 = 0))
cluster_merge_unimodal(mat, bin_res)
#> $assign
#> # A tibble: 40 × 2
#>    orig  merged
#>    <chr> <chr> 
#>  1 A     1_2   
#>  2 A     1_2   
#>  3 A     1_2   
#>  4 A     1_2   
#>  5 A     1_2   
#>  6 A     1_2   
#>  7 A     1_2   
#>  8 A     1_2   
#>  9 A     1_2   
#> 10 A     1_2   
#> # ℹ 30 more rows
…
